…
### **q3** You should have found *at least* three outliers in q2 (but possibly many more!). Identify those outliers (figure out which countries they are).

``` r
## TASK: Identify the outliers from q2
gapminder %>%
  filter(year == year_min) %>%
  arrange(desc(gdpPercap))
```

    ## # A tibble: 142 × 6
    ##    country        continent  year lifeExp       pop gdpPercap
    ##    <fct>          <fct>     <int>   <dbl>     <int>     <dbl>
    ##  1 Kuwait         Asia       1952    55.6    160000   108382.
    ##  2 Switzerland    Europe     1952    69.6   4815000    14734.
    ##  3 United States  Americas   1952    68.4 157553000    13990.
    ##  4 Canada         Americas   1952    68.8  14785584    11367.
    ##  5 New Zealand    Oceania    1952    69.4   1994794    10557.
    ##  6 Norway         Europe     1952    72.7   3327728    10095.
    ##  7 Australia      Oceania    1952    69.1   8691212    10040.
    ##  8 United Kingdom Europe     1952    69.2  50430000     9980.
    ##  9 Bahrain        Asia       1952    50.9    120447     9867.
    ## 10 Denmark        Europe     1952    70.8   4334000     9692.
    ## # … with 132 more rows
…
- Across the board, life expectancy has gone up in all continents.
- Despite Kuwait’s very large GDP per capita, their life expectancy is
  not the highest in the world, let alone just in Asia.
- The Americas have the largest range for life expectancy in 1952, while
  Africa has the largest range in 2007. It is possible that there is a
  large development disparity in Africa.

``` r
## TASK: Your second graph
gapminder %>%
  filter(year == year_max) %>%
  arrange(desc(lifeExp))
```

    ## # A tibble: 142 × 6
    ##    country          continent  year lifeExp       pop gdpPercap
    ##    <fct>            <fct>     <int>   <dbl>     <int>     <dbl>
    ##  1 Japan            Asia       2007    82.6 127467972    31656.
    ##  2 Hong Kong, China Asia       2007    82.2   6980412    39725.
    ##  3 Iceland          Europe     2007    81.8    301931    36181.
    ##  4 Switzerland      Europe     2007    81.7   7554661    37506.
    ##  5 Australia        Oceania    2007    81.2  20434176    34435.
    ##  6 Spain            Europe     2007    80.9  40448191    28821.
    ##  7 Sweden           Europe     2007    80.9   9031088    33860.
    ##  8 Israel           Asia       2007    80.7   6426679    25523.
    ##  9 France           Europe     2007    80.7  61083916    30470.
    ## 10 Canada           Americas   2007    80.7  33390141    36319.
    ## # … with 132 more rows
…
